^Y:\PROFILES\DESKTOP\TP1_PROG\TP1P\MAIN.CPP|Y:\PROFILES\DESKTOP\TP1_PROG\TP1P\MENU.CPP|Y:\PROFILES\DESKTOP\TP1_PROG\TP1P\RESTAURANT.CPP|Y:\PROFILES\DESKTOP\TP1_PROG\TP1P\TABLE.CPP
Y:\PROFILES\DESKTOP\TP1_PROG\TP1P\X64\DEBUG\VC141.PDB
Y:\PROFILES\DESKTOP\TP1_PROG\TP1P\X64\DEBUG\VC141.IDB
Y:\PROFILES\DESKTOP\TP1_PROG\TP1P\X64\DEBUG\MAIN.OBJ
^Y:\PROFILES\DESKTOP\TP1_PROG\TP1P\MAIN.CPP|Y:\PROFILES\DESKTOP\TP1_PROG\TP1P\MENU.CPP|Y:\PROFILES\DESKTOP\TP1_PROG\TP1P\PLAT.CPP|Y:\PROFILES\DESKTOP\TP1_PROG\TP1P\RESTAURANT.CPP|Y:\PROFILES\DESKTOP\TP1_PROG\TP1P\TABLE.CPP
Y:\PROFILES\DESKTOP\TP1_PROG\TP1P\X64\DEBUG\VC141.PDB
Y:\PROFILES\DESKTOP\TP1_PROG\TP1P\X64\DEBUG\VC141.IDB
Y:\PROFILES\DESKTOP\TP1_PROG\TP1P\X64\DEBUG\TABLE.OBJ
Y:\PROFILES\DESKTOP\TP1_PROG\TP1P\X64\DEBUG\RESTAURANT.OBJ
Y:\PROFILES\DESKTOP\TP1_PROG\TP1P\X64\DEBUG\PLAT.OBJ
Y:\PROFILES\DESKTOP\TP1_PROG\TP1P\X64\DEBUG\MENU.OBJ
Y:\PROFILES\DESKTOP\TP1_PROG\TP1P\X64\DEBUG\MAIN.OBJ
^Y:\PROFILES\DESKTOP\TP1_PROG\TP1P\PLAT.CPP
Y:\PROFILES\DESKTOP\TP1_PROG\TP1P\X64\DEBUG\VC141.PDB
^Y:\PROFILES\DESKTOP\TP1_PROG\TP1P\TABLE.CPP
Y:\PROFILES\DESKTOP\TP1_PROG\TP1P\X64\DEBUG\VC141.PDB
^Y:\PROFILES\DESKTOP\TP1_PROG\TP1P\MAIN.CPP|Y:\PROFILES\DESKTOP\TP1_PROG\TP1P\RESTAURANT.CPP
Y:\PROFILES\DESKTOP\TP1_PROG\TP1P\X64\DEBUG\VC141.PDB
Y:\PROFILES\DESKTOP\TP1_PROG\TP1P\X64\DEBUG\VC141.IDB
Y:\PROFILES\DESKTOP\TP1_PROG\TP1P\X64\DEBUG\MAIN.OBJ
Y:\PROFILES\DESKTOP\TP1_PROG\TP1P\X64\DEBUG\RESTAURANT.OBJ
^Y:\PROFILES\DESKTOP\TP1_PROG\TP1P\MAIN.CPP
Y:\PROFILES\DESKTOP\TP1_PROG\TP1P\X64\DEBUG\VC141.PDB
^Y:\PROFILES\DESKTOP\TP1_PROG\TP1P\MENU.CPP|Y:\PROFILES\DESKTOP\TP1_PROG\TP1P\RESTAURANT.CPP
Y:\PROFILES\DESKTOP\TP1_PROG\TP1P\X64\DEBUG\VC141.PDB
Y:\PROFILES\DESKTOP\TP1_PROG\TP1P\X64\DEBUG\VC141.IDB
Y:\PROFILES\DESKTOP\TP1_PROG\TP1P\X64\DEBUG\RESTAURANT.OBJ
Y:\PROFILES\DESKTOP\TP1_PROG\TP1P\X64\DEBUG\MENU.OBJ
^Y:\PROFILES\DESKTOP\TP1_PROG\TP1P\MENU.CPP
Y:\PROFILES\DESKTOP\TP1_PROG\TP1P\X64\DEBUG\VC141.PDB
^Y:\PROFILES\DESKTOP\TP1_PROG\TP1P\RESTAURANT.CPP
Y:\PROFILES\DESKTOP\TP1_PROG\TP1P\X64\DEBUG\VC141.PDB
