^Y:\PROFILES\DESKTOP\TP1_PROG\TP1P\X64\DEBUG\MAIN.OBJ|Y:\PROFILES\DESKTOP\TP1_PROG\TP1P\X64\DEBUG\MENU.OBJ|Y:\PROFILES\DESKTOP\TP1_PROG\TP1P\X64\DEBUG\PLAT.OBJ|Y:\PROFILES\DESKTOP\TP1_PROG\TP1P\X64\DEBUG\RESTAURANT.OBJ|Y:\PROFILES\DESKTOP\TP1_PROG\TP1P\X64\DEBUG\TABLE.OBJ
Y:\PROFILES\DESKTOP\TP1_PROG\X64\DEBUG\TP1P.EXE
Y:\PROFILES\DESKTOP\TP1_PROG\X64\DEBUG\TP1P.ILK
Y:\PROFILES\DESKTOP\TP1_PROG\X64\DEBUG\TP1P.PDB
